%YAML 1.1
%TAG !u! tag:unity3d.com,2011:
--- !u!29 &1
OcclusionCullingSettings:
  m_ObjectHideFlags: 0
  serializedVersion: 2
  m_OcclusionBakeSettings:
    smallestOccluder: 5
    smallestHole: 0.25
    backfaceThreshold: 100
  m_SceneGUID: 00000000000000000000000000000000
  m_OcclusionCullingData: {fileID: 0}
--- !u!104 &2
RenderSettings:
  m_ObjectHideFlags: 0
  serializedVersion: 9
  m_Fog: 0
  m_FogColor: {r: 0.5, g: 0.5, b: 0.5, a: 1}
  m_FogMode: 3
  m_FogDensity: 0.01
  m_LinearFogStart: 0
  m_LinearFogEnd: 300
  m_AmbientSkyColor: {r: 0.212, g: 0.227, b: 0.259, a: 1}
  m_AmbientEquatorColor: {r: 0.114, g: 0.125, b: 0.133, a: 1}
  m_AmbientGroundColor: {r: 0.047, g: 0.043, b: 0.035, a: 1}
  m_AmbientIntensity: 1
  m_AmbientMode: 0
  m_SubtractiveShadowColor: {r: 0.42, g: 0.478, b: 0.627, a: 1}
  m_SkyboxMaterial: {fileID: 10304, guid: 0000000000000000f000000000000000, type: 0}
  m_HaloStrength: 0.5
  m_FlareStrength: 1
  m_FlareFadeSpeed: 3
  m_HaloTexture: {fileID: 0}
  m_SpotCookie: {fileID: 10001, guid: 0000000000000000e000000000000000, type: 0}
  m_DefaultReflectionMode: 0
  m_DefaultReflectionResolution: 128
  m_ReflectionBounces: 1
  m_ReflectionIntensity: 1
  m_CustomReflection: {fileID: 0}
  m_Sun: {fileID: 0}
  m_IndirectSpecularColor: {r: 0, g: 0, b: 0, a: 1}
  m_UseRadianceAmbientProbe: 0
--- !u!157 &3
LightmapSettings:
  m_ObjectHideFlags: 0
  serializedVersion: 12
  m_GIWorkflowMode: 1
  m_GISettings:
    serializedVersion: 2
    m_BounceScale: 1
    m_IndirectOutputScale: 1
    m_AlbedoBoost: 1
    m_EnvironmentLightingMode: 0
    m_EnableBakedLightmaps: 1
    m_EnableRealtimeLightmaps: 1
  m_LightmapEditorSettings:
    serializedVersion: 12
    m_Resolution: 2
    m_BakeResolution: 40
    m_AtlasSize: 1024
    m_AO: 0
    m_AOMaxDistance: 1
    m_CompAOExponent: 1
    m_CompAOExponentDirect: 0
    m_ExtractAmbientOcclusion: 0
    m_Padding: 2
    m_LightmapParameters: {fileID: 0}
    m_LightmapsBakeMode: 1
    m_TextureCompression: 1
    m_FinalGather: 0
    m_FinalGatherFiltering: 1
    m_FinalGatherRayCount: 256
    m_ReflectionCompression: 2
    m_MixedBakeMode: 2
    m_BakeBackend: 1
    m_PVRSampling: 1
    m_PVRDirectSampleCount: 32
    m_PVRSampleCount: 512
    m_PVRBounces: 2
    m_PVREnvironmentSampleCount: 256
    m_PVREnvironmentReferencePointCount: 2048
    m_PVRFilteringMode: 1
    m_PVRDenoiserTypeDirect: 1
    m_PVRDenoiserTypeIndirect: 1
    m_PVRDenoiserTypeAO: 1
    m_PVRFilterTypeDirect: 0
    m_PVRFilterTypeIndirect: 0
    m_PVRFilterTypeAO: 0
    m_PVREnvironmentMIS: 1
    m_PVRCulling: 1
    m_PVRFilteringGaussRadiusDirect: 1
    m_PVRFilteringGaussRadiusIndirect: 5
    m_PVRFilteringGaussRadiusAO: 2
    m_PVRFilteringAtrousPositionSigmaDirect: 0.5
    m_PVRFilteringAtrousPositionSigmaIndirect: 2
    m_PVRFilteringAtrousPositionSigmaAO: 1
    m_ExportTrainingData: 0
    m_TrainingDataDestination: TrainingData
    m_LightProbeSampleCountMultiplier: 4
  m_LightingDataAsset: {fileID: 0}
  m_LightingSettings: {fileID: 4890085278179872738, guid: 57c9f42bd12d69549a2e5e05ff41e6f5, type: 2}
--- !u!196 &4
NavMeshSettings:
  serializedVersion: 2
  m_ObjectHideFlags: 0
  m_BuildSettings:
    serializedVersion: 2
    agentTypeID: 0
    agentRadius: 0.5
    agentHeight: 2
    agentSlope: 45
    agentClimb: 0.4
    ledgeDropHeight: 0
    maxJumpAcrossDistance: 0
    minRegionArea: 2
    manualCellSize: 0
    cellSize: 0.16666667
    manualTileSize: 0
    tileSize: 256
    accuratePlacement: 0
    maxJobWorkers: 0
    preserveTilesOutsideBounds: 0
    debug:
      m_Flags: 0
  m_NavMeshData: {fileID: 0}
--- !u!1001 &120110847
PrefabInstance:
  m_ObjectHideFlags: 0
  serializedVersion: 2
  m_Modification:
    m_TransformParent: {fileID: 0}
    m_Modifications:
    - target: {fileID: 2296698527035632177, guid: 5106b120de5d21a418f77180c26f1c45, type: 3}
      propertyPath: m_Name
      value: StreetLamp2_Tall (Black)
      objectReference: {fileID: 0}
    - target: {fileID: 2991756831493838882, guid: 5106b120de5d21a418f77180c26f1c45, type: 3}
      propertyPath: m_RootOrder
      value: 17
      objectReference: {fileID: 0}
    - target: {fileID: 2991756831493838882, guid: 5106b120de5d21a418f77180c26f1c45, type: 3}
      propertyPath: m_LocalPosition.x
      value: -7.61
      objectReference: {fileID: 0}
    - target: {fileID: 2991756831493838882, guid: 5106b120de5d21a418f77180c26f1c45, type: 3}
      propertyPath: m_LocalPosition.y
      value: -4.381731e-17
      objectReference: {fileID: 0}
    - target: {fileID: 2991756831493838882, guid: 5106b120de5d21a418f77180c26f1c45, type: 3}
      propertyPath: m_LocalPosition.z
      value: -7.58
      objectReference: {fileID: 0}
    - target: {fileID: 2991756831493838882, guid: 5106b120de5d21a418f77180c26f1c45, type: 3}
      propertyPath: m_LocalRotation.w
      value: 1
      objectReference: {fileID: 0}
    - target: {fileID: 2991756831493838882, guid: 5106b120de5d21a418f77180c26f1c45, type: 3}
      propertyPath: m_LocalRotation.x
      value: 0
      objectReference: {fileID: 0}
    - target: {fileID: 2991756831493838882, guid: 5106b120de5d21a418f77180c26f1c45, type: 3}
      propertyPath: m_LocalRotation.y
      value: -0
      objectReference: {fileID: 0}
    - target: {fileID: 2991756831493838882, guid: 5106b120de5d21a418f77180c26f1c45, type: 3}
      propertyPath: m_LocalRotation.z
      value: -0
      objectReference: {fileID: 0}
    - target: {fileID: 2991756831493838882, guid: 5106b120de5d21a418f77180c26f1c45, type: 3}
      propertyPath: m_LocalEulerAnglesHint.x
      value: 0
      objectReference: {fileID: 0}
    - target: {fileID: 2991756831493838882, guid: 5106b120de5d21a418f77180c26f1c45, type: 3}
      propertyPath: m_LocalEulerAnglesHint.y
      value: 0
      objectReference: {fileID: 0}
    - target: {fileID: 2991756831493838882, guid: 5106b120de5d21a418f77180c26f1c45, type: 3}
      propertyPath: m_LocalEulerAnglesHint.z
      value: 0
      objectReference: {fileID: 0}
    - target: {fileID: 6115849002220446228, guid: 5106b120de5d21a418f77180c26f1c45, type: 3}
      propertyPath: m_Mesh
      value: 
      objectReference: {fileID: -687036336594918691, guid: c2fbbd11e42372247bb41ffe9a265430, type: 3}
    - target: {fileID: 7853835962542291306, guid: 5106b120de5d21a418f77180c26f1c45, type: 3}
      propertyPath: m_LocalPosition.y
      value: 4.92
      objectReference: {fileID: 0}
    - target: {fileID: 7853835963068211754, guid: 5106b120de5d21a418f77180c26f1c45, type: 3}
      propertyPath: m_LocalPosition.y
      value: 5.005
      objectReference: {fileID: 0}
    - target: {fileID: 7853835963068211765, guid: 5106b120de5d21a418f77180c26f1c45, type: 3}
      propertyPath: m_Range
      value: 8
      objectReference: {fileID: 0}
    - target: {fileID: 7853835963068211765, guid: 5106b120de5d21a418f77180c26f1c45, type: 3}
      propertyPath: m_Intensity
      value: 2.5
      objectReference: {fileID: 0}
    m_RemovedComponents: []
  m_SourcePrefab: {fileID: 100100000, guid: 5106b120de5d21a418f77180c26f1c45, type: 3}
--- !u!1001 &179781177
PrefabInstance:
  m_ObjectHideFlags: 0
  serializedVersion: 2
  m_Modification:
    m_TransformParent: {fileID: 0}
    m_Modifications:
    - target: {fileID: 856284849276247665, guid: 53511846966b6ce4c8acb830be33adff, type: 3}
      propertyPath: m_Range
      value: 8
      objectReference: {fileID: 0}
    - target: {fileID: 856284849276247665, guid: 53511846966b6ce4c8acb830be33adff, type: 3}
      propertyPath: m_Intensity
      value: 2.5
      objectReference: {fileID: 0}
    - target: {fileID: 856284849276247665, guid: 53511846966b6ce4c8acb830be33adff, type: 3}
      propertyPath: m_SpotAngle
      value: 105.2
      objectReference: {fileID: 0}
    - target: {fileID: 1263881239168321199, guid: 53511846966b6ce4c8acb830be33adff, type: 3}
      propertyPath: m_Name
      value: StreetLamp1_TallDouble (Concrete)
      objectReference: {fileID: 0}
    - target: {fileID: 2869193814172398780, guid: 53511846966b6ce4c8acb830be33adff, type: 3}
      propertyPath: m_RootOrder
      value: 9
      objectReference: {fileID: 0}
    - target: {fileID: 2869193814172398780, guid: 53511846966b6ce4c8acb830be33adff, type: 3}
      propertyPath: m_LocalPosition.x
      value: 0.09999263
      objectReference: {fileID: 0}
    - target: {fileID: 2869193814172398780, guid: 53511846966b6ce4c8acb830be33adff, type: 3}
      propertyPath: m_LocalPosition.y
      value: 0
      objectReference: {fileID: 0}
    - target: {fileID: 2869193814172398780, guid: 53511846966b6ce4c8acb830be33adff, type: 3}
      propertyPath: m_LocalPosition.z
      value: -6.72
      objectReference: {fileID: 0}
    - target: {fileID: 2869193814172398780, guid: 53511846966b6ce4c8acb830be33adff, type: 3}
      propertyPath: m_LocalRotation.w
      value: 0.0000029802318
      objectReference: {fileID: 0}
    - target: {fileID: 2869193814172398780, guid: 53511846966b6ce4c8acb830be33adff, type: 3}
      propertyPath: m_LocalRotation.x
      value: -0
      objectReference: {fileID: 0}
    - target: {fileID: 2869193814172398780, guid: 53511846966b6ce4c8acb830be33adff, type: 3}
      propertyPath: m_LocalRotation.y
      value: -1
      objectReference: {fileID: 0}
    - target: {fileID: 2869193814172398780, guid: 53511846966b6ce4c8acb830be33adff, type: 3}
      propertyPath: m_LocalRotation.z
      value: -0
      objectReference: {fileID: 0}
    - target: {fileID: 2869193814172398780, guid: 53511846966b6ce4c8acb830be33adff, type: 3}
      propertyPath: m_LocalEulerAnglesHint.x
      value: 0
      objectReference: {fileID: 0}
    - target: {fileID: 2869193814172398780, guid: 53511846966b6ce4c8acb830be33adff, type: 3}
      propertyPath: m_LocalEulerAnglesHint.y
      value: -180.00002
      objectReference: {fileID: 0}
    - target: {fileID: 2869193814172398780, guid: 53511846966b6ce4c8acb830be33adff, type: 3}
      propertyPath: m_LocalEulerAnglesHint.z
      value: 0
      objectReference: {fileID: 0}
    - target: {fileID: 4130280174660061410, guid: 53511846966b6ce4c8acb830be33adff, type: 3}
      propertyPath: m_LocalPosition.y
      value: 4.62
      objectReference: {fileID: 0}
    - target: {fileID: 6524143754183528074, guid: 53511846966b6ce4c8acb830be33adff, type: 3}
      propertyPath: m_Mesh
      value: 
      objectReference: {fileID: 3014624508245489090, guid: e778a9bac4221734ea9d355cde103f15, type: 3}
    - target: {fileID: 7110014326466624822, guid: 53511846966b6ce4c8acb830be33adff, type: 3}
      propertyPath: m_LocalPosition.y
      value: 4.62
      objectReference: {fileID: 0}
    - target: {fileID: 7110014327953757256, guid: 53511846966b6ce4c8acb830be33adff, type: 3}
      propertyPath: m_LocalPosition.y
      value: 4.674
      objectReference: {fileID: 0}
    - target: {fileID: 7110014327953757263, guid: 53511846966b6ce4c8acb830be33adff, type: 3}
      propertyPath: m_Range
      value: 8
      objectReference: {fileID: 0}
    - target: {fileID: 7110014327953757263, guid: 53511846966b6ce4c8acb830be33adff, type: 3}
      propertyPath: m_Intensity
      value: 2.5
      objectReference: {fileID: 0}
    - target: {fileID: 7110014327953757263, guid: 53511846966b6ce4c8acb830be33adff, type: 3}
      propertyPath: m_SpotAngle
      value: 105.2
      objectReference: {fileID: 0}
    - target: {fileID: 8060731010575112893, guid: 53511846966b6ce4c8acb830be33adff, type: 3}
      propertyPath: m_LocalPosition.y
      value: 4.674
      objectReference: {fileID: 0}
    m_RemovedComponents: []
  m_SourcePrefab: {fileID: 100100000, guid: 53511846966b6ce4c8acb830be33adff, type: 3}
--- !u!1 &182669885
GameObject:
  m_ObjectHideFlags: 0
  m_CorrespondingSourceObject: {fileID: 0}
  m_PrefabInstance: {fileID: 0}
  m_PrefabAsset: {fileID: 0}
  serializedVersion: 6
  m_Component:
  - component: {fileID: 182669889}
  - component: {fileID: 182669888}
  - component: {fileID: 182669887}
  - component: {fileID: 182669886}
  m_Layer: 0
  m_Name: Floor1
  m_TagString: Untagged
  m_Icon: {fileID: 0}
  m_NavMeshLayer: 0
  m_StaticEditorFlags: 0
  m_IsActive: 1
--- !u!64 &182669886
MeshCollider:
  m_ObjectHideFlags: 0
  m_CorrespondingSourceObject: {fileID: 0}
  m_PrefabInstance: {fileID: 0}
  m_PrefabAsset: {fileID: 0}
  m_GameObject: {fileID: 182669885}
  m_Material: {fileID: 0}
  m_IsTrigger: 0
  m_Enabled: 1
  serializedVersion: 4
  m_Convex: 0
  m_CookingOptions: 30
  m_Mesh: {fileID: 10209, guid: 0000000000000000e000000000000000, type: 0}
--- !u!23 &182669887
MeshRenderer:
  m_ObjectHideFlags: 0
  m_CorrespondingSourceObject: {fileID: 0}
  m_PrefabInstance: {fileID: 0}
  m_PrefabAsset: {fileID: 0}
  m_GameObject: {fileID: 182669885}
  m_Enabled: 1
  m_CastShadows: 1
  m_ReceiveShadows: 1
  m_DynamicOccludee: 1
  m_MotionVectors: 1
  m_LightProbeUsage: 1
  m_ReflectionProbeUsage: 1
  m_RayTracingMode: 2
  m_RayTraceProcedural: 0
  m_RenderingLayerMask: 1
  m_RendererPriority: 0
  m_Materials:
  - {fileID: 2100000, guid: 194a7e2c4a9fc5f409dca86a97e93fea, type: 2}
  m_StaticBatchInfo:
    firstSubMesh: 0
    subMeshCount: 0
  m_StaticBatchRoot: {fileID: 0}
  m_ProbeAnchor: {fileID: 0}
  m_LightProbeVolumeOverride: {fileID: 0}
  m_ScaleInLightmap: 1
  m_ReceiveGI: 1
  m_PreserveUVs: 0
  m_IgnoreNormalsForChartDetection: 0
  m_ImportantGI: 0
  m_StitchLightmapSeams: 1
  m_SelectedEditorRenderState: 3
  m_MinimumChartSize: 4
  m_AutoUVMaxDistance: 0.5
  m_AutoUVMaxAngle: 89
  m_LightmapParameters: {fileID: 0}
  m_SortingLayerID: 0
  m_SortingLayer: 0
  m_SortingOrder: 0
  m_AdditionalVertexStreams: {fileID: 0}
--- !u!33 &182669888
MeshFilter:
  m_ObjectHideFlags: 0
  m_CorrespondingSourceObject: {fileID: 0}
  m_PrefabInstance: {fileID: 0}
  m_PrefabAsset: {fileID: 0}
  m_GameObject: {fileID: 182669885}
  m_Mesh: {fileID: 10209, guid: 0000000000000000e000000000000000, type: 0}
--- !u!4 &182669889
Transform:
  m_ObjectHideFlags: 0
  m_CorrespondingSourceObject: {fileID: 0}
  m_PrefabInstance: {fileID: 0}
  m_PrefabAsset: {fileID: 0}
  m_GameObject: {fileID: 182669885}
  m_LocalRotation: {x: 0, y: 0, z: 0, w: 1}
  m_LocalPosition: {x: 2.77, y: 0, z: -1.58}
  m_LocalScale: {x: 1.0268903, y: 1.4805, z: 1.9687688}
  m_Children: []
  m_Father: {fileID: 0}
  m_RootOrder: 2
  m_LocalEulerAnglesHint: {x: 0, y: 0, z: 0}
--- !u!1001 &186063745
PrefabInstance:
  m_ObjectHideFlags: 0
  serializedVersion: 2
  m_Modification:
    m_TransformParent: {fileID: 0}
    m_Modifications:
    - target: {fileID: 899370639600318514, guid: 683754683c8213e4ea879026d84be241, type: 3}
      propertyPath: m_Mesh
      value: 
      objectReference: {fileID: -1423210732189301204, guid: 9c30d06babd009546a717f60cfa802fd, type: 3}
    - target: {fileID: 3772475681932394856, guid: 683754683c8213e4ea879026d84be241, type: 3}
      propertyPath: m_Range
      value: 8
      objectReference: {fileID: 0}
    - target: {fileID: 3772475681932394856, guid: 683754683c8213e4ea879026d84be241, type: 3}
      propertyPath: m_Intensity
      value: 2.5
      objectReference: {fileID: 0}
    - target: {fileID: 3772475681932394859, guid: 683754683c8213e4ea879026d84be241, type: 3}
      propertyPath: m_LocalPosition.y
      value: 5.005
      objectReference: {fileID: 0}
    - target: {fileID: 3772475682078189868, guid: 683754683c8213e4ea879026d84be241, type: 3}
      propertyPath: m_LocalPosition.y
      value: 4.92
      objectReference: {fileID: 0}
    - target: {fileID: 3772475682294731785, guid: 683754683c8213e4ea879026d84be241, type: 3}
      propertyPath: m_LocalPosition.y
      value: 5.005
      objectReference: {fileID: 0}
    - target: {fileID: 3772475682294731798, guid: 683754683c8213e4ea879026d84be241, type: 3}
      propertyPath: m_Range
      value: 8
      objectReference: {fileID: 0}
    - target: {fileID: 3772475682294731798, guid: 683754683c8213e4ea879026d84be241, type: 3}
      propertyPath: m_Intensity
      value: 2.5
      objectReference: {fileID: 0}
    - target: {fileID: 3772475683173904251, guid: 683754683c8213e4ea879026d84be241, type: 3}
      propertyPath: m_LocalPosition.y
      value: 4.92
      objectReference: {fileID: 0}
    - target: {fileID: 5150829015901351959, guid: 683754683c8213e4ea879026d84be241, type: 3}
      propertyPath: m_Name
      value: StreetLamp2_TallDouble (Black)
      objectReference: {fileID: 0}
    - target: {fileID: 8151570764710396420, guid: 683754683c8213e4ea879026d84be241, type: 3}
      propertyPath: m_RootOrder
      value: 19
      objectReference: {fileID: 0}
    - target: {fileID: 8151570764710396420, guid: 683754683c8213e4ea879026d84be241, type: 3}
      propertyPath: m_LocalPosition.x
      value: -7.29
      objectReference: {fileID: 0}
    - target: {fileID: 8151570764710396420, guid: 683754683c8213e4ea879026d84be241, type: 3}
      propertyPath: m_LocalPosition.y
      value: 0
      objectReference: {fileID: 0}
    - target: {fileID: 8151570764710396420, guid: 683754683c8213e4ea879026d84be241, type: 3}
      propertyPath: m_LocalPosition.z
      value: -4.0141687
      objectReference: {fileID: 0}
    - target: {fileID: 8151570764710396420, guid: 683754683c8213e4ea879026d84be241, type: 3}
      propertyPath: m_LocalRotation.w
      value: 1
      objectReference: {fileID: 0}
    - target: {fileID: 8151570764710396420, guid: 683754683c8213e4ea879026d84be241, type: 3}
      propertyPath: m_LocalRotation.x
      value: 0
      objectReference: {fileID: 0}
    - target: {fileID: 8151570764710396420, guid: 683754683c8213e4ea879026d84be241, type: 3}
      propertyPath: m_LocalRotation.y
      value: -0
      objectReference: {fileID: 0}
    - target: {fileID: 8151570764710396420, guid: 683754683c8213e4ea879026d84be241, type: 3}
      propertyPath: m_LocalRotation.z
      value: -0
      objectReference: {fileID: 0}
    - target: {fileID: 8151570764710396420, guid: 683754683c8213e4ea879026d84be241, type: 3}
      propertyPath: m_LocalEulerAnglesHint.x
      value: 0
      objectReference: {fileID: 0}
    - target: {fileID: 8151570764710396420, guid: 683754683c8213e4ea879026d84be241, type: 3}
      propertyPath: m_LocalEulerAnglesHint.y
      value: 0
      objectReference: {fileID: 0}
    - target: {fileID: 8151570764710396420, guid: 683754683c8213e4ea879026d84be241, type: 3}
      propertyPath: m_LocalEulerAnglesHint.z
      value: 0
      objectReference: {fileID: 0}
    m_RemovedComponents: []
  m_SourcePrefab: {fileID: 100100000, guid: 683754683c8213e4ea879026d84be241, type: 3}
--- !u!1 &196389929
GameObject:
  m_ObjectHideFlags: 0
  m_CorrespondingSourceObject: {fileID: 0}
  m_PrefabInstance: {fileID: 0}
  m_PrefabAsset: {fileID: 0}
  serializedVersion: 6
  m_Component:
  - component: {fileID: 196389930}
  m_Layer: 0
  m_Name: -------------------
  m_TagString: Untagged
  m_Icon: {fileID: 0}
  m_NavMeshLayer: 0
  m_StaticEditorFlags: 0
  m_IsActive: 1
--- !u!4 &196389930
Transform:
  m_ObjectHideFlags: 0
  m_CorrespondingSourceObject: {fileID: 0}
  m_PrefabInstance: {fileID: 0}
  m_PrefabAsset: {fileID: 0}
  m_GameObject: {fileID: 196389929}
  m_LocalRotation: {x: 0, y: 0, z: 0, w: 1}
  m_LocalPosition: {x: -1.0566084, y: 1.4483478, z: 2.4473307}
  m_LocalScale: {x: 1, y: 1, z: 1}
  m_Children: []
  m_Father: {fileID: 0}
  m_RootOrder: 12
  m_LocalEulerAnglesHint: {x: 0, y: 0, z: 0}
--- !u!1001 &218719423
PrefabInstance:
  m_ObjectHideFlags: 0
  serializedVersion: 2
  m_Modification:
    m_TransformParent: {fileID: 0}
    m_Modifications:
    - target: {fileID: 5623816384937972763, guid: 10078452dab690a4099417aafe441aed, type: 3}
      propertyPath: m_RootOrder
      value: 14
      objectReference: {fileID: 0}
    - target: {fileID: 5623816384937972763, guid: 10078452dab690a4099417aafe441aed, type: 3}
      propertyPath: m_LocalPosition.x
      value: -11.209983
      objectReference: {fileID: 0}
    - target: {fileID: 5623816384937972763, guid: 10078452dab690a4099417aafe441aed, type: 3}
      propertyPath: m_LocalPosition.y
      value: -4.683159e-17
      objectReference: {fileID: 0}
    - target: {fileID: 5623816384937972763, guid: 10078452dab690a4099417aafe441aed, type: 3}
      propertyPath: m_LocalPosition.z
      value: 1.13
      objectReference: {fileID: 0}
    - target: {fileID: 5623816384937972763, guid: 10078452dab690a4099417aafe441aed, type: 3}
      propertyPath: m_LocalRotation.w
      value: 1
      objectReference: {fileID: 0}
    - target: {fileID: 5623816384937972763, guid: 10078452dab690a4099417aafe441aed, type: 3}
      propertyPath: m_LocalRotation.x
      value: 0
      objectReference: {fileID: 0}
    - target: {fileID: 5623816384937972763, guid: 10078452dab690a4099417aafe441aed, type: 3}
      propertyPath: m_LocalRotation.y
      value: -0
      objectReference: {fileID: 0}
    - target: {fileID: 5623816384937972763, guid: 10078452dab690a4099417aafe441aed, type: 3}
      propertyPath: m_LocalRotation.z
      value: -0
      objectReference: {fileID: 0}
    - target: {fileID: 5623816384937972763, guid: 10078452dab690a4099417aafe441aed, type: 3}
      propertyPath: m_LocalEulerAnglesHint.x
      value: 0
      objectReference: {fileID: 0}
    - target: {fileID: 5623816384937972763, guid: 10078452dab690a4099417aafe441aed, type: 3}
      propertyPath: m_LocalEulerAnglesHint.y
      value: 0
      objectReference: {fileID: 0}
    - target: {fileID: 5623816384937972763, guid: 10078452dab690a4099417aafe441aed, type: 3}
      propertyPath: m_LocalEulerAnglesHint.z
      value: 0
      objectReference: {fileID: 0}
    - target: {fileID: 8669595224616019464, guid: 10078452dab690a4099417aafe441aed, type: 3}
      propertyPath: m_Name
      value: StreetLamp2_Short (Concrete)
      objectReference: {fileID: 0}
    m_RemovedComponents: []
  m_SourcePrefab: {fileID: 100100000, guid: 10078452dab690a4099417aafe441aed, type: 3}
--- !u!1001 &281814421
PrefabInstance:
  m_ObjectHideFlags: 0
  serializedVersion: 2
  m_Modification:
    m_TransformParent: {fileID: 0}
    m_Modifications:
    - target: {fileID: 121418290699475107, guid: a0db7f048a9ccd3418cc76708bc2c06c, type: 3}
      propertyPath: m_Name
      value: StreetLamp1_Tall (Wood)
      objectReference: {fileID: 0}
    - target: {fileID: 4031852592219187888, guid: a0db7f048a9ccd3418cc76708bc2c06c, type: 3}
      propertyPath: m_RootOrder
      value: 8
      objectReference: {fileID: 0}
    - target: {fileID: 4031852592219187888, guid: a0db7f048a9ccd3418cc76708bc2c06c, type: 3}
      propertyPath: m_LocalPosition.x
      value: 3.6710114
      objectReference: {fileID: 0}
    - target: {fileID: 4031852592219187888, guid: a0db7f048a9ccd3418cc76708bc2c06c, type: 3}
      propertyPath: m_LocalPosition.y
      value: 0
      objectReference: {fileID: 0}
    - target: {fileID: 4031852592219187888, guid: a0db7f048a9ccd3418cc76708bc2c06c, type: 3}
      propertyPath: m_LocalPosition.z
      value: -2.3590152
      objectReference: {fileID: 0}
    - target: {fileID: 4031852592219187888, guid: a0db7f048a9ccd3418cc76708bc2c06c, type: 3}
      propertyPath: m_LocalRotation.w
      value: 0.0000029802318
      objectReference: {fileID: 0}
    - target: {fileID: 4031852592219187888, guid: a0db7f048a9ccd3418cc76708bc2c06c, type: 3}
      propertyPath: m_LocalRotation.x
      value: -0
      objectReference: {fileID: 0}
    - target: {fileID: 4031852592219187888, guid: a0db7f048a9ccd3418cc76708bc2c06c, type: 3}
      propertyPath: m_LocalRotation.y
      value: -1
      objectReference: {fileID: 0}
    - target: {fileID: 4031852592219187888, guid: a0db7f048a9ccd3418cc76708bc2c06c, type: 3}
      propertyPath: m_LocalRotation.z
      value: -0
      objectReference: {fileID: 0}
    - target: {fileID: 4031852592219187888, guid: a0db7f048a9ccd3418cc76708bc2c06c, type: 3}
      propertyPath: m_LocalEulerAnglesHint.x
      value: 0
      objectReference: {fileID: 0}
    - target: {fileID: 4031852592219187888, guid: a0db7f048a9ccd3418cc76708bc2c06c, type: 3}
      propertyPath: m_LocalEulerAnglesHint.y
      value: -180.00002
      objectReference: {fileID: 0}
    - target: {fileID: 4031852592219187888, guid: a0db7f048a9ccd3418cc76708bc2c06c, type: 3}
      propertyPath: m_LocalEulerAnglesHint.z
      value: 0
      objectReference: {fileID: 0}
    - target: {fileID: 5381522473088536710, guid: a0db7f048a9ccd3418cc76708bc2c06c, type: 3}
      propertyPath: m_Mesh
      value: 
      objectReference: {fileID: 3369933559572171809, guid: 5f762237f251df245951874e04796ecd, type: 3}
    - target: {fileID: 8254729079026295610, guid: a0db7f048a9ccd3418cc76708bc2c06c, type: 3}
      propertyPath: m_LocalPosition.y
      value: 4.62
      objectReference: {fileID: 0}
    - target: {fileID: 8254729080244996675, guid: a0db7f048a9ccd3418cc76708bc2c06c, type: 3}
      propertyPath: m_Range
      value: 8
      objectReference: {fileID: 0}
    - target: {fileID: 8254729080244996675, guid: a0db7f048a9ccd3418cc76708bc2c06c, type: 3}
      propertyPath: m_Intensity
      value: 2.5
      objectReference: {fileID: 0}
    - target: {fileID: 8254729080244996675, guid: a0db7f048a9ccd3418cc76708bc2c06c, type: 3}
      propertyPath: m_SpotAngle
      value: 105.2
      objectReference: {fileID: 0}
    - target: {fileID: 8254729080244996676, guid: a0db7f048a9ccd3418cc76708bc2c06c, type: 3}
      propertyPath: m_LocalPosition.y
      value: 4.674
      objectReference: {fileID: 0}
    m_RemovedComponents: []
  m_SourcePrefab: {fileID: 100100000, guid: a0db7f048a9ccd3418cc76708bc2c06c, type: 3}
--- !u!1 &569206992
GameObject:
  m_ObjectHideFlags: 0
  m_CorrespondingSourceObject: {fileID: 0}
  m_PrefabInstance: {fileID: 0}
  m_PrefabAsset: {fileID: 0}
  serializedVersion: 6
  m_Component:
  - component: {fileID: 569206996}
  - component: {fileID: 569206995}
  - component: {fileID: 569206994}
  - component: {fileID: 569206993}
  m_Layer: 0
  m_Name: Floor2
  m_TagString: Untagged
  m_Icon: {fileID: 0}
  m_NavMeshLayer: 0
  m_StaticEditorFlags: 0
  m_IsActive: 1
--- !u!64 &569206993
MeshCollider:
  m_ObjectHideFlags: 0
  m_CorrespondingSourceObject: {fileID: 0}
  m_PrefabInstance: {fileID: 0}
  m_PrefabAsset: {fileID: 0}
  m_GameObject: {fileID: 569206992}
  m_Material: {fileID: 0}
  m_IsTrigger: 0
  m_Enabled: 1
  serializedVersion: 4
  m_Convex: 0
  m_CookingOptions: 30
  m_Mesh: {fileID: 10209, guid: 0000000000000000e000000000000000, type: 0}
--- !u!23 &569206994
MeshRenderer:
  m_ObjectHideFlags: 0
  m_CorrespondingSourceObject: {fileID: 0}
  m_PrefabInstance: {fileID: 0}
  m_PrefabAsset: {fileID: 0}
  m_GameObject: {fileID: 569206992}
  m_Enabled: 1
  m_CastShadows: 1
  m_ReceiveShadows: 1
  m_DynamicOccludee: 1
  m_MotionVectors: 1
  m_LightProbeUsage: 1
  m_ReflectionProbeUsage: 1
  m_RayTracingMode: 2
  m_RayTraceProcedural: 0
  m_RenderingLayerMask: 1
  m_RendererPriority: 0
  m_Materials:
  - {fileID: 2100000, guid: 194a7e2c4a9fc5f409dca86a97e93fea, type: 2}
  m_StaticBatchInfo:
    firstSubMesh: 0
    subMeshCount: 0
  m_StaticBatchRoot: {fileID: 0}
  m_ProbeAnchor: {fileID: 0}
  m_LightProbeVolumeOverride: {fileID: 0}
  m_ScaleInLightmap: 1
  m_ReceiveGI: 1
  m_PreserveUVs: 0
  m_IgnoreNormalsForChartDetection: 0
  m_ImportantGI: 0
  m_StitchLightmapSeams: 1
  m_SelectedEditorRenderState: 3
  m_MinimumChartSize: 4
  m_AutoUVMaxDistance: 0.5
  m_AutoUVMaxAngle: 89
  m_LightmapParameters: {fileID: 0}
  m_SortingLayerID: 0
  m_SortingLayer: 0
  m_SortingOrder: 0
  m_AdditionalVertexStreams: {fileID: 0}
--- !u!33 &569206995
MeshFilter:
  m_ObjectHideFlags: 0
  m_CorrespondingSourceObject: {fileID: 0}
  m_PrefabInstance: {fileID: 0}
  m_PrefabAsset: {fileID: 0}
  m_GameObject: {fileID: 569206992}
  m_Mesh: {fileID: 10209, guid: 0000000000000000e000000000000000, type: 0}
--- !u!4 &569206996
Transform:
  m_ObjectHideFlags: 0
  m_CorrespondingSourceObject: {fileID: 0}
  m_PrefabInstance: {fileID: 0}
  m_PrefabAsset: {fileID: 0}
  m_GameObject: {fileID: 569206992}
  m_LocalRotation: {x: 0, y: 0, z: 0, w: 1}
  m_LocalPosition: {x: -9.04, y: 0, z: -1.58}
  m_LocalScale: {x: 1.0268903, y: 1.4805, z: 1.9687688}
  m_Children: []
  m_Father: {fileID: 0}
  m_RootOrder: 3
  m_LocalEulerAnglesHint: {x: 0, y: 0, z: 0}
--- !u!1001 &587251499
PrefabInstance:
  m_ObjectHideFlags: 0
  serializedVersion: 2
  m_Modification:
    m_TransformParent: {fileID: 0}
    m_Modifications:
    - target: {fileID: 2296698527035632177, guid: 5106b120de5d21a418f77180c26f1c45, type: 3}
      propertyPath: m_Name
      value: StreetLamp2_Short (Black)
      objectReference: {fileID: 0}
    - target: {fileID: 2991756831493838882, guid: 5106b120de5d21a418f77180c26f1c45, type: 3}
      propertyPath: m_RootOrder
      value: 13
      objectReference: {fileID: 0}
    - target: {fileID: 2991756831493838882, guid: 5106b120de5d21a418f77180c26f1c45, type: 3}
      propertyPath: m_LocalPosition.x
      value: -7.61
      objectReference: {fileID: 0}
    - target: {fileID: 2991756831493838882, guid: 5106b120de5d21a418f77180c26f1c45, type: 3}
      propertyPath: m_LocalPosition.y
      value: -4.381731e-17
      objectReference: {fileID: 0}
    - target: {fileID: 2991756831493838882, guid: 5106b120de5d21a418f77180c26f1c45, type: 3}
      propertyPath: m_LocalPosition.z
      value: 1.0441688
      objectReference: {fileID: 0}
    - target: {fileID: 2991756831493838882, guid: 5106b120de5d21a418f77180c26f1c45, type: 3}
      propertyPath: m_LocalRotation.w
      value: 1
      objectReference: {fileID: 0}
    - target: {fileID: 2991756831493838882, guid: 5106b120de5d21a418f77180c26f1c45, type: 3}
      propertyPath: m_LocalRotation.x
      value: 0
      objectReference: {fileID: 0}
    - target: {fileID: 2991756831493838882, guid: 5106b120de5d21a418f77180c26f1c45, type: 3}
      propertyPath: m_LocalRotation.y
      value: -0
      objectReference: {fileID: 0}
    - target: {fileID: 2991756831493838882, guid: 5106b120de5d21a418f77180c26f1c45, type: 3}
      propertyPath: m_LocalRotation.z
      value: -0
      objectReference: {fileID: 0}
    - target: {fileID: 2991756831493838882, guid: 5106b120de5d21a418f77180c26f1c45, type: 3}
      propertyPath: m_LocalEulerAnglesHint.x
      value: 0
      objectReference: {fileID: 0}
    - target: {fileID: 2991756831493838882, guid: 5106b120de5d21a418f77180c26f1c45, type: 3}
      propertyPath: m_LocalEulerAnglesHint.y
      value: 0
      objectReference: {fileID: 0}
    - target: {fileID: 2991756831493838882, guid: 5106b120de5d21a418f77180c26f1c45, type: 3}
      propertyPath: m_LocalEulerAnglesHint.z
      value: 0
      objectReference: {fileID: 0}
    m_RemovedComponents: []
  m_SourcePrefab: {fileID: 100100000, guid: 5106b120de5d21a418f77180c26f1c45, type: 3}
--- !u!1 &843662557
GameObject:
  m_ObjectHideFlags: 0
  m_CorrespondingSourceObject: {fileID: 0}
  m_PrefabInstance: {fileID: 0}
  m_PrefabAsset: {fileID: 0}
  serializedVersion: 6
  m_Component:
  - component: {fileID: 843662559}
  - component: {fileID: 843662558}
  m_Layer: 0
  m_Name: Directional Light
  m_TagString: Untagged
  m_Icon: {fileID: 0}
  m_NavMeshLayer: 0
  m_StaticEditorFlags: 0
  m_IsActive: 1
--- !u!108 &843662558
Light:
  m_ObjectHideFlags: 0
  m_CorrespondingSourceObject: {fileID: 0}
  m_PrefabInstance: {fileID: 0}
  m_PrefabAsset: {fileID: 0}
  m_GameObject: {fileID: 843662557}
  m_Enabled: 1
  serializedVersion: 10
  m_Type: 1
  m_Shape: 0
  m_Color: {r: 1, g: 0.95686275, b: 0.8392157, a: 1}
  m_Intensity: 0.5
  m_Range: 10
  m_SpotAngle: 30
  m_InnerSpotAngle: 21.80208
  m_CookieSize: 10
  m_Shadows:
    m_Type: 2
    m_Resolution: -1
    m_CustomResolution: -1
    m_Strength: 1
    m_Bias: 0.05
    m_NormalBias: 0.4
    m_NearPlane: 0.2
    m_CullingMatrixOverride:
      e00: 1
      e01: 0
      e02: 0
      e03: 0
      e10: 0
      e11: 1
      e12: 0
      e13: 0
      e20: 0
      e21: 0
      e22: 1
      e23: 0
      e30: 0
      e31: 0
      e32: 0
      e33: 1
    m_UseCullingMatrixOverride: 0
  m_Cookie: {fileID: 0}
  m_DrawHalo: 0
  m_Flare: {fileID: 0}
  m_RenderMode: 0
  m_CullingMask:
    serializedVersion: 2
    m_Bits: 4294967295
  m_RenderingLayerMask: 1
  m_Lightmapping: 4
  m_LightShadowCasterMode: 0
  m_AreaSize: {x: 1, y: 1}
  m_BounceIntensity: 1
  m_ColorTemperature: 6570
  m_UseColorTemperature: 0
  m_BoundingSphereOverride: {x: 0, y: 0, z: 0, w: 0}
  m_UseBoundingSphereOverride: 0
  m_ShadowRadius: 0
  m_ShadowAngle: 0
--- !u!4 &843662559
Transform:
  m_ObjectHideFlags: 0
  m_CorrespondingSourceObject: {fileID: 0}
  m_PrefabInstance: {fileID: 0}
  m_PrefabAsset: {fileID: 0}
  m_GameObject: {fileID: 843662557}
  m_LocalRotation: {x: 0.40821788, y: -0.23456968, z: 0.10938163, w: 0.8754261}
  m_LocalPosition: {x: 0, y: 3, z: 0}
  m_LocalScale: {x: 1, y: 1, z: 1}
  m_Children: []
  m_Father: {fileID: 0}
  m_RootOrder: 1
  m_LocalEulerAnglesHint: {x: 50, y: -30, z: 0}
--- !u!1001 &875365850
PrefabInstance:
  m_ObjectHideFlags: 0
  serializedVersion: 2
  m_Modification:
    m_TransformParent: {fileID: 0}
    m_Modifications:
    - target: {fileID: 1545063071326300676, guid: e55f449d142443c4c96764e849da910a, type: 3}
      propertyPath: m_RootOrder
      value: 11
      objectReference: {fileID: 0}
    - target: {fileID: 1545063071326300676, guid: e55f449d142443c4c96764e849da910a, type: 3}
      propertyPath: m_LocalPosition.x
      value: 0.14101183
      objectReference: {fileID: 0}
    - target: {fileID: 1545063071326300676, guid: e55f449d142443c4c96764e849da910a, type: 3}
      propertyPath: m_LocalPosition.y
      value: 0
      objectReference: {fileID: 0}
    - target: {fileID: 1545063071326300676, guid: e55f449d142443c4c96764e849da910a, type: 3}
      propertyPath: m_LocalPosition.z
      value: -2.3589993
      objectReference: {fileID: 0}
    - target: {fileID: 1545063071326300676, guid: e55f449d142443c4c96764e849da910a, type: 3}
      propertyPath: m_LocalRotation.w
      value: 0.0000029802318
      objectReference: {fileID: 0}
    - target: {fileID: 1545063071326300676, guid: e55f449d142443c4c96764e849da910a, type: 3}
      propertyPath: m_LocalRotation.x
      value: -0
      objectReference: {fileID: 0}
    - target: {fileID: 1545063071326300676, guid: e55f449d142443c4c96764e849da910a, type: 3}
      propertyPath: m_LocalRotation.y
      value: -1
      objectReference: {fileID: 0}
    - target: {fileID: 1545063071326300676, guid: e55f449d142443c4c96764e849da910a, type: 3}
      propertyPath: m_LocalRotation.z
      value: -0
      objectReference: {fileID: 0}
    - target: {fileID: 1545063071326300676, guid: e55f449d142443c4c96764e849da910a, type: 3}
      propertyPath: m_LocalEulerAnglesHint.x
      value: 0
      objectReference: {fileID: 0}
    - target: {fileID: 1545063071326300676, guid: e55f449d142443c4c96764e849da910a, type: 3}
      propertyPath: m_LocalEulerAnglesHint.y
      value: -180.00002
      objectReference: {fileID: 0}
    - target: {fileID: 1545063071326300676, guid: e55f449d142443c4c96764e849da910a, type: 3}
      propertyPath: m_LocalEulerAnglesHint.z
      value: 0
      objectReference: {fileID: 0}
    - target: {fileID: 2533964689087174679, guid: e55f449d142443c4c96764e849da910a, type: 3}
      propertyPath: m_Name
      value: StreetLamp1_Tall (Concrete)
      objectReference: {fileID: 0}
    - target: {fileID: 5767877898922560240, guid: e55f449d142443c4c96764e849da910a, type: 3}
      propertyPath: m_LocalPosition.y
      value: 4.674
      objectReference: {fileID: 0}
    - target: {fileID: 5767877898922560247, guid: e55f449d142443c4c96764e849da910a, type: 3}
      propertyPath: m_Range
      value: 8
      objectReference: {fileID: 0}
    - target: {fileID: 5767877898922560247, guid: e55f449d142443c4c96764e849da910a, type: 3}
      propertyPath: m_Intensity
      value: 2.5
      objectReference: {fileID: 0}
    - target: {fileID: 5767877898922560247, guid: e55f449d142443c4c96764e849da910a, type: 3}
      propertyPath: m_SpotAngle
      value: 105.2
      objectReference: {fileID: 0}
    - target: {fileID: 5767877899583431566, guid: e55f449d142443c4c96764e849da910a, type: 3}
      propertyPath: m_LocalPosition.y
      value: 4.62
      objectReference: {fileID: 0}
    - target: {fileID: 7505860186787369010, guid: e55f449d142443c4c96764e849da910a, type: 3}
      propertyPath: m_Mesh
      value: 
      objectReference: {fileID: 3369933559572171809, guid: 5f762237f251df245951874e04796ecd, type: 3}
    m_RemovedComponents: []
  m_SourcePrefab: {fileID: 100100000, guid: e55f449d142443c4c96764e849da910a, type: 3}
--- !u!1 &882607324
GameObject:
  m_ObjectHideFlags: 0
  m_CorrespondingSourceObject: {fileID: 0}
  m_PrefabInstance: {fileID: 0}
  m_PrefabAsset: {fileID: 0}
  serializedVersion: 6
  m_Component:
  - component: {fileID: 882607327}
  - component: {fileID: 882607326}
  - component: {fileID: 882607325}
  m_Layer: 0
  m_Name: Main Camera
  m_TagString: MainCamera
  m_Icon: {fileID: 0}
  m_NavMeshLayer: 0
  m_StaticEditorFlags: 0
  m_IsActive: 1
--- !u!81 &882607325
AudioListener:
  m_ObjectHideFlags: 0
  m_CorrespondingSourceObject: {fileID: 0}
  m_PrefabInstance: {fileID: 0}
  m_PrefabAsset: {fileID: 0}
  m_GameObject: {fileID: 882607324}
  m_Enabled: 1
--- !u!20 &882607326
Camera:
  m_ObjectHideFlags: 0
  m_CorrespondingSourceObject: {fileID: 0}
  m_PrefabInstance: {fileID: 0}
  m_PrefabAsset: {fileID: 0}
  m_GameObject: {fileID: 882607324}
  m_Enabled: 1
  serializedVersion: 2
  m_ClearFlags: 1
  m_BackGroundColor: {r: 0.19215687, g: 0.3019608, b: 0.4745098, a: 0}
  m_projectionMatrixMode: 1
  m_GateFitMode: 2
  m_FOVAxisMode: 0
  m_SensorSize: {x: 36, y: 24}
  m_LensShift: {x: 0, y: 0}
  m_FocalLength: 50
  m_NormalizedViewPortRect:
    serializedVersion: 2
    x: 0
    y: 0
    width: 1
    height: 1
  near clip plane: 0.3
  far clip plane: 1000
  field of view: 60
  orthographic: 0
  orthographic size: 5
  m_Depth: -1
  m_CullingMask:
    serializedVersion: 2
    m_Bits: 4294967295
  m_RenderingPath: -1
  m_TargetTexture: {fileID: 0}
  m_TargetDisplay: 0
  m_TargetEye: 3
  m_HDR: 1
  m_AllowMSAA: 1
  m_AllowDynamicResolution: 0
  m_ForceIntoRT: 0
  m_OcclusionCulling: 1
  m_StereoConvergence: 10
  m_StereoSeparation: 0.022
--- !u!4 &882607327
Transform:
  m_ObjectHideFlags: 0
  m_CorrespondingSourceObject: {fileID: 0}
  m_PrefabInstance: {fileID: 0}
  m_PrefabAsset: {fileID: 0}
  m_GameObject: {fileID: 882607324}
  m_LocalRotation: {x: 0.04528268, y: 0.916578, z: -0.109205365, w: 0.38197967}
  m_LocalPosition: {x: -14.084636, y: 4.2546535, z: 7.54574}
  m_LocalScale: {x: 1, y: 1, z: 1}
  m_Children: []
  m_Father: {fileID: 0}
  m_RootOrder: 0
  m_LocalEulerAnglesHint: {x: 0, y: 0, z: 0}
--- !u!1001 &1102130298
PrefabInstance:
  m_ObjectHideFlags: 0
  serializedVersion: 2
  m_Modification:
    m_TransformParent: {fileID: 0}
    m_Modifications:
    - target: {fileID: 1085230513559840480, guid: 18cd2fc0a780b0e40b1ee8a58822853f, type: 3}
      propertyPath: m_Mesh
      value: 
      objectReference: {fileID: 3014624508245489090, guid: e778a9bac4221734ea9d355cde103f15, type: 3}
    - target: {fileID: 3976169496708152354, guid: 18cd2fc0a780b0e40b1ee8a58822853f, type: 3}
      propertyPath: m_LocalPosition.y
      value: 4.674
      objectReference: {fileID: 0}
    - target: {fileID: 3976169496708152357, guid: 18cd2fc0a780b0e40b1ee8a58822853f, type: 3}
      propertyPath: m_Range
      value: 8
      objectReference: {fileID: 0}
    - target: {fileID: 3976169496708152357, guid: 18cd2fc0a780b0e40b1ee8a58822853f, type: 3}
      propertyPath: m_Intensity
      value: 2.5
      objectReference: {fileID: 0}
    - target: {fileID: 3976169496708152357, guid: 18cd2fc0a780b0e40b1ee8a58822853f, type: 3}
      propertyPath: m_SpotAngle
      value: 105.2
      objectReference: {fileID: 0}
    - target: {fileID: 3976169497670997340, guid: 18cd2fc0a780b0e40b1ee8a58822853f, type: 3}
      propertyPath: m_LocalPosition.y
      value: 4.62
      objectReference: {fileID: 0}
    - target: {fileID: 4204270157756461783, guid: 18cd2fc0a780b0e40b1ee8a58822853f, type: 3}
      propertyPath: m_LocalPosition.y
      value: 4.674
      objectReference: {fileID: 0}
    - target: {fileID: 4904380416175107781, guid: 18cd2fc0a780b0e40b1ee8a58822853f, type: 3}
      propertyPath: m_Name
      value: StreetLamp1_TallDouble (Wood)
      objectReference: {fileID: 0}
    - target: {fileID: 6802629804643300891, guid: 18cd2fc0a780b0e40b1ee8a58822853f, type: 3}
      propertyPath: m_Range
      value: 8
      objectReference: {fileID: 0}
    - target: {fileID: 6802629804643300891, guid: 18cd2fc0a780b0e40b1ee8a58822853f, type: 3}
      propertyPath: m_Intensity
      value: 2.5
      objectReference: {fileID: 0}
    - target: {fileID: 6802629804643300891, guid: 18cd2fc0a780b0e40b1ee8a58822853f, type: 3}
      propertyPath: m_SpotAngle
      value: 105.2
      objectReference: {fileID: 0}
    - target: {fileID: 7841992515453771912, guid: 18cd2fc0a780b0e40b1ee8a58822853f, type: 3}
      propertyPath: m_LocalPosition.y
      value: 4.62
      objectReference: {fileID: 0}
    - target: {fileID: 8238356789363023062, guid: 18cd2fc0a780b0e40b1ee8a58822853f, type: 3}
      propertyPath: m_RootOrder
      value: 10
      objectReference: {fileID: 0}
    - target: {fileID: 8238356789363023062, guid: 18cd2fc0a780b0e40b1ee8a58822853f, type: 3}
      propertyPath: m_LocalPosition.x
      value: 3.5409937
      objectReference: {fileID: 0}
    - target: {fileID: 8238356789363023062, guid: 18cd2fc0a780b0e40b1ee8a58822853f, type: 3}
      propertyPath: m_LocalPosition.y
      value: 0
      objectReference: {fileID: 0}
    - target: {fileID: 8238356789363023062, guid: 18cd2fc0a780b0e40b1ee8a58822853f, type: 3}
      propertyPath: m_LocalPosition.z
      value: -6.5270157
      objectReference: {fileID: 0}
    - target: {fileID: 8238356789363023062, guid: 18cd2fc0a780b0e40b1ee8a58822853f, type: 3}
      propertyPath: m_LocalRotation.w
      value: 0.0000029802318
      objectReference: {fileID: 0}
    - target: {fileID: 8238356789363023062, guid: 18cd2fc0a780b0e40b1ee8a58822853f, type: 3}
      propertyPath: m_LocalRotation.x
      value: -0
      objectReference: {fileID: 0}
    - target: {fileID: 8238356789363023062, guid: 18cd2fc0a780b0e40b1ee8a58822853f, type: 3}
      propertyPath: m_LocalRotation.y
      value: -1
      objectReference: {fileID: 0}
    - target: {fileID: 8238356789363023062, guid: 18cd2fc0a780b0e40b1ee8a58822853f, type: 3}
      propertyPath: m_LocalRotation.z
      value: -0
      objectReference: {fileID: 0}
    - target: {fileID: 8238356789363023062, guid: 18cd2fc0a780b0e40b1ee8a58822853f, type: 3}
      propertyPath: m_LocalEulerAnglesHint.x
      value: 0
      objectReference: {fileID: 0}
    - target: {fileID: 8238356789363023062, guid: 18cd2fc0a780b0e40b1ee8a58822853f, type: 3}
      propertyPath: m_LocalEulerAnglesHint.y
      value: -180.00002
      objectReference: {fileID: 0}
    - target: {fileID: 8238356789363023062, guid: 18cd2fc0a780b0e40b1ee8a58822853f, type: 3}
      propertyPath: m_LocalEulerAnglesHint.z
      value: 0
      objectReference: {fileID: 0}
    m_RemovedComponents: []
  m_SourcePrefab: {fileID: 100100000, guid: 18cd2fc0a780b0e40b1ee8a58822853f, type: 3}
--- !u!1001 &1267057481
PrefabInstance:
  m_ObjectHideFlags: 0
  serializedVersion: 2
  m_Modification:
    m_TransformParent: {fileID: 0}
    m_Modifications:
    - target: {fileID: 1151464179299795060, guid: 10078452dab690a4099417aafe441aed, type: 3}
      propertyPath: m_LocalPosition.y
      value: 5.005
      objectReference: {fileID: 0}
    - target: {fileID: 3697676895676067373, guid: 10078452dab690a4099417aafe441aed, type: 3}
      propertyPath: m_Mesh
      value: 
      objectReference: {fileID: -687036336594918691, guid: c2fbbd11e42372247bb41ffe9a265430, type: 3}
    - target: {fileID: 4024411913570510031, guid: 10078452dab690a4099417aafe441aed, type: 3}
      propertyPath: m_Range
      value: 8
      objectReference: {fileID: 0}
    - target: {fileID: 4024411913570510031, guid: 10078452dab690a4099417aafe441aed, type: 3}
      propertyPath: m_Intensity
      value: 2.5
      objectReference: {fileID: 0}
    - target: {fileID: 5623816384937972763, guid: 10078452dab690a4099417aafe441aed, type: 3}
      propertyPath: m_RootOrder
      value: 18
      objectReference: {fileID: 0}
    - target: {fileID: 5623816384937972763, guid: 10078452dab690a4099417aafe441aed, type: 3}
      propertyPath: m_LocalPosition.x
      value: -11.209983
      objectReference: {fileID: 0}
    - target: {fileID: 5623816384937972763, guid: 10078452dab690a4099417aafe441aed, type: 3}
      propertyPath: m_LocalPosition.y
      value: -4.683159e-17
      objectReference: {fileID: 0}
    - target: {fileID: 5623816384937972763, guid: 10078452dab690a4099417aafe441aed, type: 3}
      propertyPath: m_LocalPosition.z
      value: -7.4941688
      objectReference: {fileID: 0}
    - target: {fileID: 5623816384937972763, guid: 10078452dab690a4099417aafe441aed, type: 3}
      propertyPath: m_LocalRotation.w
      value: 1
      objectReference: {fileID: 0}
    - target: {fileID: 5623816384937972763, guid: 10078452dab690a4099417aafe441aed, type: 3}
      propertyPath: m_LocalRotation.x
      value: 0
      objectReference: {fileID: 0}
    - target: {fileID: 5623816384937972763, guid: 10078452dab690a4099417aafe441aed, type: 3}
      propertyPath: m_LocalRotation.y
      value: -0
      objectReference: {fileID: 0}
    - target: {fileID: 5623816384937972763, guid: 10078452dab690a4099417aafe441aed, type: 3}
      propertyPath: m_LocalRotation.z
      value: -0
      objectReference: {fileID: 0}
    - target: {fileID: 5623816384937972763, guid: 10078452dab690a4099417aafe441aed, type: 3}
      propertyPath: m_LocalEulerAnglesHint.x
      value: 0
      objectReference: {fileID: 0}
    - target: {fileID: 5623816384937972763, guid: 10078452dab690a4099417aafe441aed, type: 3}
      propertyPath: m_LocalEulerAnglesHint.y
      value: 0
      objectReference: {fileID: 0}
    - target: {fileID: 5623816384937972763, guid: 10078452dab690a4099417aafe441aed, type: 3}
      propertyPath: m_LocalEulerAnglesHint.z
      value: 0
      objectReference: {fileID: 0}
    - target: {fileID: 8322476336503666280, guid: 10078452dab690a4099417aafe441aed, type: 3}
      propertyPath: m_LocalPosition.y
      value: 4.92
      objectReference: {fileID: 0}
    - target: {fileID: 8669595224616019464, guid: 10078452dab690a4099417aafe441aed, type: 3}
      propertyPath: m_Name
      value: StreetLamp2_Tall (Concrete)
      objectReference: {fileID: 0}
    m_RemovedComponents: []
  m_SourcePrefab: {fileID: 100100000, guid: 10078452dab690a4099417aafe441aed, type: 3}
--- !u!1001 &2052821435
PrefabInstance:
  m_ObjectHideFlags: 0
  serializedVersion: 2
  m_Modification:
    m_TransformParent: {fileID: 0}
    m_Modifications:
    - target: {fileID: 716453792507124468, guid: d637864fd6d99f24c976d61f894c2ae5, type: 3}
      propertyPath: m_LocalPosition.y
      value: 4.92
      objectReference: {fileID: 0}
    - target: {fileID: 716453793281546825, guid: d637864fd6d99f24c976d61f894c2ae5, type: 3}
      propertyPath: m_Range
      value: 8
      objectReference: {fileID: 0}
    - target: {fileID: 716453793281546825, guid: d637864fd6d99f24c976d61f894c2ae5, type: 3}
      propertyPath: m_Intensity
      value: 2.5
      objectReference: {fileID: 0}
    - target: {fileID: 716453793281546826, guid: d637864fd6d99f24c976d61f894c2ae5, type: 3}
      propertyPath: m_LocalPosition.y
      value: 5.005
      objectReference: {fileID: 0}
    - target: {fileID: 716453793419137505, guid: d637864fd6d99f24c976d61f894c2ae5, type: 3}
      propertyPath: m_LocalPosition.y
      value: 4.92
      objectReference: {fileID: 0}
    - target: {fileID: 716453793516417762, guid: d637864fd6d99f24c976d61f894c2ae5, type: 3}
      propertyPath: m_Range
      value: 8
      objectReference: {fileID: 0}
    - target: {fileID: 716453793516417762, guid: d637864fd6d99f24c976d61f894c2ae5, type: 3}
      propertyPath: m_Intensity
      value: 2.5
      objectReference: {fileID: 0}
    - target: {fileID: 716453793516417763, guid: d637864fd6d99f24c976d61f894c2ae5, type: 3}
      propertyPath: m_LocalPosition.y
      value: 5.005
      objectReference: {fileID: 0}
    - target: {fileID: 3589624661009980217, guid: d637864fd6d99f24c976d61f894c2ae5, type: 3}
      propertyPath: m_Mesh
      value: 
      objectReference: {fileID: -1423210732189301204, guid: 9c30d06babd009546a717f60cfa802fd, type: 3}
    - target: {fileID: 5515764004258341135, guid: d637864fd6d99f24c976d61f894c2ae5, type: 3}
      propertyPath: m_RootOrder
      value: 20
      objectReference: {fileID: 0}
    - target: {fileID: 5515764004258341135, guid: d637864fd6d99f24c976d61f894c2ae5, type: 3}
      propertyPath: m_LocalPosition.x
      value: -11.26
      objectReference: {fileID: 0}
    - target: {fileID: 5515764004258341135, guid: d637864fd6d99f24c976d61f894c2ae5, type: 3}
      propertyPath: m_LocalPosition.y
      value: 0
      objectReference: {fileID: 0}
    - target: {fileID: 5515764004258341135, guid: d637864fd6d99f24c976d61f894c2ae5, type: 3}
      propertyPath: m_LocalPosition.z
      value: -4.0141687
      objectReference: {fileID: 0}
    - target: {fileID: 5515764004258341135, guid: d637864fd6d99f24c976d61f894c2ae5, type: 3}
      propertyPath: m_LocalRotation.w
      value: 1
      objectReference: {fileID: 0}
    - target: {fileID: 5515764004258341135, guid: d637864fd6d99f24c976d61f894c2ae5, type: 3}
      propertyPath: m_LocalRotation.x
      value: 0
      objectReference: {fileID: 0}
    - target: {fileID: 5515764004258341135, guid: d637864fd6d99f24c976d61f894c2ae5, type: 3}
      propertyPath: m_LocalRotation.y
      value: -0
      objectReference: {fileID: 0}
    - target: {fileID: 5515764004258341135, guid: d637864fd6d99f24c976d61f894c2ae5, type: 3}
      propertyPath: m_LocalRotation.z
      value: -0
      objectReference: {fileID: 0}
    - target: {fileID: 5515764004258341135, guid: d637864fd6d99f24c976d61f894c2ae5, type: 3}
      propertyPath: m_LocalEulerAnglesHint.x
      value: 0
      objectReference: {fileID: 0}
    - target: {fileID: 5515764004258341135, guid: d637864fd6d99f24c976d61f894c2ae5, type: 3}
      propertyPath: m_LocalEulerAnglesHint.y
      value: 0
      objectReference: {fileID: 0}
    - target: {fileID: 5515764004258341135, guid: d637864fd6d99f24c976d61f894c2ae5, type: 3}
      propertyPath: m_LocalEulerAnglesHint.z
      value: 0
      objectReference: {fileID: 0}
    - target: {fileID: 8849775559486640924, guid: d637864fd6d99f24c976d61f894c2ae5, type: 3}
      propertyPath: m_Name
      value: StreetLamp2_TallDouble (Concrete)
      objectReference: {fileID: 0}
    m_RemovedComponents: []
  m_SourcePrefab: {fileID: 100100000, guid: d637864fd6d99f24c976d61f894c2ae5, type: 3}
--- !u!1001 &716453792373113635
PrefabInstance:
  m_ObjectHideFlags: 0
  serializedVersion: 2
  m_Modification:
    m_TransformParent: {fileID: 0}
    m_Modifications:
    - target: {fileID: 5515764004258341135, guid: d637864fd6d99f24c976d61f894c2ae5, type: 3}
      propertyPath: m_RootOrder
      value: 16
      objectReference: {fileID: 0}
    - target: {fileID: 5515764004258341135, guid: d637864fd6d99f24c976d61f894c2ae5, type: 3}
      propertyPath: m_LocalPosition.x
      value: -11.26
      objectReference: {fileID: 0}
    - target: {fileID: 5515764004258341135, guid: d637864fd6d99f24c976d61f894c2ae5, type: 3}
      propertyPath: m_LocalPosition.y
      value: 0
      objectReference: {fileID: 0}
    - target: {fileID: 5515764004258341135, guid: d637864fd6d99f24c976d61f894c2ae5, type: 3}
      propertyPath: m_LocalPosition.z
      value: 4.61
      objectReference: {fileID: 0}
    - target: {fileID: 5515764004258341135, guid: d637864fd6d99f24c976d61f894c2ae5, type: 3}
      propertyPath: m_LocalRotation.w
      value: 1
      objectReference: {fileID: 0}
    - target: {fileID: 5515764004258341135, guid: d637864fd6d99f24c976d61f894c2ae5, type: 3}
      propertyPath: m_LocalRotation.x
      value: 0
      objectReference: {fileID: 0}
    - target: {fileID: 5515764004258341135, guid: d637864fd6d99f24c976d61f894c2ae5, type: 3}
      propertyPath: m_LocalRotation.y
      value: -0
      objectReference: {fileID: 0}
    - target: {fileID: 5515764004258341135, guid: d637864fd6d99f24c976d61f894c2ae5, type: 3}
      propertyPath: m_LocalRotation.z
      value: -0
      objectReference: {fileID: 0}
    - target: {fileID: 5515764004258341135, guid: d637864fd6d99f24c976d61f894c2ae5, type: 3}
      propertyPath: m_LocalEulerAnglesHint.x
      value: 0
      objectReference: {fileID: 0}
    - target: {fileID: 5515764004258341135, guid: d637864fd6d99f24c976d61f894c2ae5, type: 3}
      propertyPath: m_LocalEulerAnglesHint.y
      value: 0
      objectReference: {fileID: 0}
    - target: {fileID: 5515764004258341135, guid: d637864fd6d99f24c976d61f894c2ae5, type: 3}
      propertyPath: m_LocalEulerAnglesHint.z
      value: 0
      objectReference: {fileID: 0}
    - target: {fileID: 8849775559486640924, guid: d637864fd6d99f24c976d61f894c2ae5, type: 3}
      propertyPath: m_Name
      value: StreetLamp2_ShortDouble (Concrete)
      objectReference: {fileID: 0}
    m_RemovedComponents: []
  m_SourcePrefab: {fileID: 100100000, guid: d637864fd6d99f24c976d61f894c2ae5, type: 3}
--- !u!1001 &1579709730487361842
PrefabInstance:
  m_ObjectHideFlags: 0
  serializedVersion: 2
  m_Modification:
    m_TransformParent: {fileID: 0}
    m_Modifications:
    - target: {fileID: 4904380416175107781, guid: 18cd2fc0a780b0e40b1ee8a58822853f, type: 3}
      propertyPath: m_Name
      value: StreetLamp1_ShortDouble (Wood)
      objectReference: {fileID: 0}
    - target: {fileID: 4904380416175107781, guid: 18cd2fc0a780b0e40b1ee8a58822853f, type: 3}
      propertyPath: m_IsActive
      value: 1
      objectReference: {fileID: 0}
    - target: {fileID: 8238356789363023062, guid: 18cd2fc0a780b0e40b1ee8a58822853f, type: 3}
      propertyPath: m_RootOrder
      value: 7
      objectReference: {fileID: 0}
    - target: {fileID: 8238356789363023062, guid: 18cd2fc0a780b0e40b1ee8a58822853f, type: 3}
      propertyPath: m_LocalPosition.x
      value: 0.6
      objectReference: {fileID: 0}
    - target: {fileID: 8238356789363023062, guid: 18cd2fc0a780b0e40b1ee8a58822853f, type: 3}
      propertyPath: m_LocalPosition.y
      value: 0
      objectReference: {fileID: 0}
    - target: {fileID: 8238356789363023062, guid: 18cd2fc0a780b0e40b1ee8a58822853f, type: 3}
      propertyPath: m_LocalPosition.z
      value: 4.269
      objectReference: {fileID: 0}
    - target: {fileID: 8238356789363023062, guid: 18cd2fc0a780b0e40b1ee8a58822853f, type: 3}
      propertyPath: m_LocalRotation.w
      value: 1
      objectReference: {fileID: 0}
    - target: {fileID: 8238356789363023062, guid: 18cd2fc0a780b0e40b1ee8a58822853f, type: 3}
      propertyPath: m_LocalRotation.x
      value: 0
      objectReference: {fileID: 0}
    - target: {fileID: 8238356789363023062, guid: 18cd2fc0a780b0e40b1ee8a58822853f, type: 3}
      propertyPath: m_LocalRotation.y
      value: -0
      objectReference: {fileID: 0}
    - target: {fileID: 8238356789363023062, guid: 18cd2fc0a780b0e40b1ee8a58822853f, type: 3}
      propertyPath: m_LocalRotation.z
      value: -0
      objectReference: {fileID: 0}
    - target: {fileID: 8238356789363023062, guid: 18cd2fc0a780b0e40b1ee8a58822853f, type: 3}
      propertyPath: m_LocalEulerAnglesHint.x
      value: 0
      objectReference: {fileID: 0}
    - target: {fileID: 8238356789363023062, guid: 18cd2fc0a780b0e40b1ee8a58822853f, type: 3}
      propertyPath: m_LocalEulerAnglesHint.y
      value: 0
      objectReference: {fileID: 0}
    - target: {fileID: 8238356789363023062, guid: 18cd2fc0a780b0e40b1ee8a58822853f, type: 3}
      propertyPath: m_LocalEulerAnglesHint.z
      value: 0
      objectReference: {fileID: 0}
    m_RemovedComponents: []
  m_SourcePrefab: {fileID: 100100000, guid: 18cd2fc0a780b0e40b1ee8a58822853f, type: 3}
--- !u!1001 &2955489885565053999
PrefabInstance:
  m_ObjectHideFlags: 0
  serializedVersion: 2
  m_Modification:
    m_TransformParent: {fileID: 0}
    m_Modifications:
    - target: {fileID: 121418290699475107, guid: a0db7f048a9ccd3418cc76708bc2c06c, type: 3}
      propertyPath: m_Name
      value: StreetLamp1_Short (Wood)
      objectReference: {fileID: 0}
    - target: {fileID: 121418290699475107, guid: a0db7f048a9ccd3418cc76708bc2c06c, type: 3}
      propertyPath: m_IsActive
      value: 1
      objectReference: {fileID: 0}
    - target: {fileID: 4031852592219187888, guid: a0db7f048a9ccd3418cc76708bc2c06c, type: 3}
      propertyPath: m_RootOrder
      value: 5
      objectReference: {fileID: 0}
    - target: {fileID: 4031852592219187888, guid: a0db7f048a9ccd3418cc76708bc2c06c, type: 3}
      propertyPath: m_LocalPosition.x
      value: 0.47
      objectReference: {fileID: 0}
    - target: {fileID: 4031852592219187888, guid: a0db7f048a9ccd3418cc76708bc2c06c, type: 3}
      propertyPath: m_LocalPosition.y
      value: 0
      objectReference: {fileID: 0}
    - target: {fileID: 4031852592219187888, guid: a0db7f048a9ccd3418cc76708bc2c06c, type: 3}
      propertyPath: m_LocalPosition.z
      value: 1.35
      objectReference: {fileID: 0}
    - target: {fileID: 4031852592219187888, guid: a0db7f048a9ccd3418cc76708bc2c06c, type: 3}
      propertyPath: m_LocalRotation.w
      value: 1
      objectReference: {fileID: 0}
    - target: {fileID: 4031852592219187888, guid: a0db7f048a9ccd3418cc76708bc2c06c, type: 3}
      propertyPath: m_LocalRotation.x
      value: 0
      objectReference: {fileID: 0}
    - target: {fileID: 4031852592219187888, guid: a0db7f048a9ccd3418cc76708bc2c06c, type: 3}
      propertyPath: m_LocalRotation.y
      value: -0
      objectReference: {fileID: 0}
    - target: {fileID: 4031852592219187888, guid: a0db7f048a9ccd3418cc76708bc2c06c, type: 3}
      propertyPath: m_LocalRotation.z
      value: -0
      objectReference: {fileID: 0}
    - target: {fileID: 4031852592219187888, guid: a0db7f048a9ccd3418cc76708bc2c06c, type: 3}
      propertyPath: m_LocalEulerAnglesHint.x
      value: 0
      objectReference: {fileID: 0}
    - target: {fileID: 4031852592219187888, guid: a0db7f048a9ccd3418cc76708bc2c06c, type: 3}
      propertyPath: m_LocalEulerAnglesHint.y
      value: 0
      objectReference: {fileID: 0}
    - target: {fileID: 4031852592219187888, guid: a0db7f048a9ccd3418cc76708bc2c06c, type: 3}
      propertyPath: m_LocalEulerAnglesHint.z
      value: 0
      objectReference: {fileID: 0}
    m_RemovedComponents: []
  m_SourcePrefab: {fileID: 100100000, guid: a0db7f048a9ccd3418cc76708bc2c06c, type: 3}
--- !u!1001 &3772475681639720518
PrefabInstance:
  m_ObjectHideFlags: 0
  serializedVersion: 2
  m_Modification:
    m_TransformParent: {fileID: 0}
    m_Modifications:
    - target: {fileID: 5150829015901351959, guid: 683754683c8213e4ea879026d84be241, type: 3}
      propertyPath: m_Name
      value: StreetLamp2_ShortDouble (Black)
      objectReference: {fileID: 0}
    - target: {fileID: 8151570764710396420, guid: 683754683c8213e4ea879026d84be241, type: 3}
      propertyPath: m_RootOrder
      value: 15
      objectReference: {fileID: 0}
    - target: {fileID: 8151570764710396420, guid: 683754683c8213e4ea879026d84be241, type: 3}
      propertyPath: m_LocalPosition.x
      value: -7.29
      objectReference: {fileID: 0}
    - target: {fileID: 8151570764710396420, guid: 683754683c8213e4ea879026d84be241, type: 3}
      propertyPath: m_LocalPosition.y
      value: 0
      objectReference: {fileID: 0}
    - target: {fileID: 8151570764710396420, guid: 683754683c8213e4ea879026d84be241, type: 3}
      propertyPath: m_LocalPosition.z
      value: 4.61
      objectReference: {fileID: 0}
    - target: {fileID: 8151570764710396420, guid: 683754683c8213e4ea879026d84be241, type: 3}
      propertyPath: m_LocalRotation.w
      value: 1
      objectReference: {fileID: 0}
    - target: {fileID: 8151570764710396420, guid: 683754683c8213e4ea879026d84be241, type: 3}
      propertyPath: m_LocalRotation.x
      value: 0
      objectReference: {fileID: 0}
    - target: {fileID: 8151570764710396420, guid: 683754683c8213e4ea879026d84be241, type: 3}
      propertyPath: m_LocalRotation.y
      value: -0
      objectReference: {fileID: 0}
    - target: {fileID: 8151570764710396420, guid: 683754683c8213e4ea879026d84be241, type: 3}
      propertyPath: m_LocalRotation.z
      value: -0
      objectReference: {fileID: 0}
    - target: {fileID: 8151570764710396420, guid: 683754683c8213e4ea879026d84be241, type: 3}
      propertyPath: m_LocalEulerAnglesHint.x
      value: 0
      objectReference: {fileID: 0}
    - target: {fileID: 8151570764710396420, guid: 683754683c8213e4ea879026d84be241, type: 3}
      propertyPath: m_LocalEulerAnglesHint.y
      value: 0
      objectReference: {fileID: 0}
    - target: {fileID: 8151570764710396420, guid: 683754683c8213e4ea879026d84be241, type: 3}
      propertyPath: m_LocalEulerAnglesHint.z
      value: 0
      objectReference: {fileID: 0}
    m_RemovedComponents: []
  m_SourcePrefab: {fileID: 100100000, guid: 683754683c8213e4ea879026d84be241, type: 3}
--- !u!1001 &5385012528536704601
PrefabInstance:
  m_ObjectHideFlags: 0
  serializedVersion: 2
  m_Modification:
    m_TransformParent: {fileID: 0}
    m_Modifications:
    - target: {fileID: 1263881239168321199, guid: 53511846966b6ce4c8acb830be33adff, type: 3}
      propertyPath: m_Name
      value: StreetLamp1_ShortDouble (Concrete)
      objectReference: {fileID: 0}
    - target: {fileID: 1263881239168321199, guid: 53511846966b6ce4c8acb830be33adff, type: 3}
      propertyPath: m_IsActive
      value: 1
      objectReference: {fileID: 0}
    - target: {fileID: 2869193814172398780, guid: 53511846966b6ce4c8acb830be33adff, type: 3}
      propertyPath: m_RootOrder
      value: 6
      objectReference: {fileID: 0}
    - target: {fileID: 2869193814172398780, guid: 53511846966b6ce4c8acb830be33adff, type: 3}
      propertyPath: m_LocalPosition.x
      value: 3.671
      objectReference: {fileID: 0}
    - target: {fileID: 2869193814172398780, guid: 53511846966b6ce4c8acb830be33adff, type: 3}
      propertyPath: m_LocalPosition.y
      value: 0
      objectReference: {fileID: 0}
    - target: {fileID: 2869193814172398780, guid: 53511846966b6ce4c8acb830be33adff, type: 3}
      propertyPath: m_LocalPosition.z
      value: 4.29
      objectReference: {fileID: 0}
    - target: {fileID: 2869193814172398780, guid: 53511846966b6ce4c8acb830be33adff, type: 3}
      propertyPath: m_LocalRotation.w
      value: 1
      objectReference: {fileID: 0}
    - target: {fileID: 2869193814172398780, guid: 53511846966b6ce4c8acb830be33adff, type: 3}
      propertyPath: m_LocalRotation.x
      value: 0
      objectReference: {fileID: 0}
    - target: {fileID: 2869193814172398780, guid: 53511846966b6ce4c8acb830be33adff, type: 3}
      propertyPath: m_LocalRotation.y
      value: -0
      objectReference: {fileID: 0}
    - target: {fileID: 2869193814172398780, guid: 53511846966b6ce4c8acb830be33adff, type: 3}
      propertyPath: m_LocalRotation.z
      value: -0
      objectReference: {fileID: 0}
    - target: {fileID: 2869193814172398780, guid: 53511846966b6ce4c8acb830be33adff, type: 3}
      propertyPath: m_LocalEulerAnglesHint.x
      value: 0
      objectReference: {fileID: 0}
    - target: {fileID: 2869193814172398780, guid: 53511846966b6ce4c8acb830be33adff, type: 3}
      propertyPath: m_LocalEulerAnglesHint.y
      value: 0
      objectReference: {fileID: 0}
    - target: {fileID: 2869193814172398780, guid: 53511846966b6ce4c8acb830be33adff, type: 3}
      propertyPath: m_LocalEulerAnglesHint.z
      value: 0
      objectReference: {fileID: 0}
    m_RemovedComponents: []
  m_SourcePrefab: {fileID: 100100000, guid: 53511846966b6ce4c8acb830be33adff, type: 3}
--- !u!1001 &5767877898014418851
PrefabInstance:
  m_ObjectHideFlags: 0
  serializedVersion: 2
  m_Modification:
    m_TransformParent: {fileID: 0}
    m_Modifications:
    - target: {fileID: 1545063071326300676, guid: e55f449d142443c4c96764e849da910a, type: 3}
      propertyPath: m_RootOrder
      value: 4
      objectReference: {fileID: 0}
    - target: {fileID: 1545063071326300676, guid: e55f449d142443c4c96764e849da910a, type: 3}
      propertyPath: m_LocalPosition.x
      value: 3.63
      objectReference: {fileID: 0}
    - target: {fileID: 1545063071326300676, guid: e55f449d142443c4c96764e849da910a, type: 3}
      propertyPath: m_LocalPosition.y
      value: 0
      objectReference: {fileID: 0}
    - target: {fileID: 1545063071326300676, guid: e55f449d142443c4c96764e849da910a, type: 3}
      propertyPath: m_LocalPosition.z
      value: 1.35
      objectReference: {fileID: 0}
    - target: {fileID: 1545063071326300676, guid: e55f449d142443c4c96764e849da910a, type: 3}
      propertyPath: m_LocalRotation.w
      value: 1
      objectReference: {fileID: 0}
    - target: {fileID: 1545063071326300676, guid: e55f449d142443c4c96764e849da910a, type: 3}
      propertyPath: m_LocalRotation.x
      value: 0
      objectReference: {fileID: 0}
    - target: {fileID: 1545063071326300676, guid: e55f449d142443c4c96764e849da910a, type: 3}
      propertyPath: m_LocalRotation.y
      value: -0
      objectReference: {fileID: 0}
    - target: {fileID: 1545063071326300676, guid: e55f449d142443c4c96764e849da910a, type: 3}
      propertyPath: m_LocalRotation.z
      value: -0
      objectReference: {fileID: 0}
    - target: {fileID: 1545063071326300676, guid: e55f449d142443c4c96764e849da910a, type: 3}
      propertyPath: m_LocalEulerAnglesHint.x
      value: 0
      objectReference: {fileID: 0}
    - target: {fileID: 1545063071326300676, guid: e55f449d142443c4c96764e849da910a, type: 3}
      propertyPath: m_LocalEulerAnglesHint.y
      value: 0
      objectReference: {fileID: 0}
    - target: {fileID: 1545063071326300676, guid: e55f449d142443c4c96764e849da910a, type: 3}
      propertyPath: m_LocalEulerAnglesHint.z
      value: 0
      objectReference: {fileID: 0}
    - target: {fileID: 2533964689087174679, guid: e55f449d142443c4c96764e849da910a, type: 3}
      propertyPath: m_Name
      value: StreetLamp1_Short (Concrete)
      objectReference: {fileID: 0}
    - target: {fileID: 2533964689087174679, guid: e55f449d142443c4c96764e849da910a, type: 3}
      propertyPath: m_IsActive
      value: 1
      objectReference: {fileID: 0}
    m_RemovedComponents: []
  m_SourcePrefab: {fileID: 100100000, guid: e55f449d142443c4c96764e849da910a, type: 3}
